{
  "transactions": [
    {
      "transaction_log": {
        "id": "68b2cca1-df9a-0134-595b-43d4a6cba5c4",
        "reference": "BAS Excluded",
        "entity_id": "68440530-df9a-0134-594d-43d4a6cba5c4",
        "entity_type": "Entity::TaxCode",
        "group_id": "cld-9p9y",
        "action": "CREATE",
        "status": "SUCCESS",
        "created_at": "2017-02-28T04:15:06Z",
        "updated_at": "2017-02-28T04:15:06Z",
        "app_name": "Xero",
        "resource_type": "tax_codes"
      },
      "changes": {
        "status": "ACTIVE",
        "name": "BAS Excluded",
        "tax_type": "BASEXCLUDED",
        "sale_tax_rate": 0,
        "sale_taxes": [
          {
            "name": "GST",
            "rate": 0,
            "tax_type_applicable": "TaxOnAmount"
          }
        ],
        "created_at": "2017-02-28T04:15:06Z",
        "updated_at": "2017-02-28T04:15:06Z"
      },
      "mappings": [
        {
          "group_id": "cld-9p9y",
          "provider": "Xero",
          "external_id": "BAS Excluded",
          "realm": "!ttkPj",
          "push_disabled": false,
          "pull_disabled": false,
          "auto_commit": true,
          "updated_at": "2017-02-28T04:15:05.990Z",
          "app_name": "Xero",
          "pending": false
        },
        {
          "group_id": "cld-9p9r",
          "app_name": "Vend (Nex)",
          "push_disabled": false,
          "pull_disabled": false,
          "auto_commit": true,
          "pending": false
        },
        {
          "group_id": "cld-9p9e",
          "app_name": "SalesForce (Nex)",
          "push_disabled": false,
          "pull_disabled": false,
          "auto_commit": true,
          "pending": false
        }
      ],
      "links": {
        "commit": "https://api-connec-sit.maestrano.io/api/v2/org-fbba/TaxCode/68440530-df9a-0134-594d-43d4a6cba5c4/commit",
        "matches": "https://api-connec-sit.maestrano.io/api/v2/org-fbba/TaxCode/68440530-df9a-0134-594d-43d4a6cba5c4/matches",
        "merge": "https://api-connec-sit.maestrano.io/api/v2/org-fbba/TaxCode/68440530-df9a-0134-594d-43d4a6cba5c4/merge"
      }
    },
    {
      "transaction_log": {
        "id": "68b2f3a0-df9a-0134-595f-43d4a6cba5c4",
        "reference": "BAS Excluded",
        "entity_id": "68425791-df9a-0134-594b-43d4a6cba5c4",
        "entity_type": "Entity::TaxCode",
        "group_id": "cld-9p9y",
        "action": "CREATE",
        "status": "SUCCESS",
        "created_at": "2017-02-28T04:15:06Z",
        "updated_at": "2017-02-28T04:15:06Z",
        "app_name": "Xero",
        "resource_type": "tax_codes"
      },
      "changes": {
        "status": "ACTIVE",
        "name": "BAS Excluded",
        "tax_type": "BASEXCLUDED",
        "sale_tax_rate": 0,
        "sale_taxes": [
          {
            "name": "GST",
            "rate": 0,
            "tax_type_applicable": "TaxOnAmount"
          }
        ],
        "created_at": "2017-02-28T04:15:06Z",
        "updated_at": "2017-02-28T04:15:06Z"
      },
      "mappings": [
        {
          "group_id": "cld-9p9y",
          "provider": "Xero",
          "external_id": "BAS Excluded",
          "realm": "!ttkPj",
          "push_disabled": false,
          "pull_disabled": false,
          "auto_commit": false,
          "updated_at": "2017-02-28T04:15:06.005Z",
          "app_name": "Xero",
          "pending": false
        },
        {
          "group_id": "cld-9p9r",
          "app_name": "Vend (Nex)",
          "push_disabled": false,
          "pull_disabled": false,
          "auto_commit": false,
          "pending": false
        },
        {
          "group_id": "cld-9p9e",
          "app_name": "SalesForce (Nex)",
          "push_disabled": false,
          "pull_disabled": false,
          "auto_commit": false,
          "pending": false
        }
      ],
      "links": {
        "commit": "https://api-connec-sit.maestrano.io/api/v2/org-fbba/TaxCode/68425791-df9a-0134-594b-43d4a6cba5c4/commit",
        "matches": "https://api-connec-sit.maestrano.io/api/v2/org-fbba/TaxCode/68425791-df9a-0134-594b-43d4a6cba5c4/matches",
        "merge": "https://api-connec-sit.maestrano.io/api/v2/org-fbba/TaxCode/68425791-df9a-0134-594b-43d4a6cba5c4/merge"
      }
    },
    {
      "transaction_log": {
        "id": "68b2f3a0-df9a-0134-595e-43d4a6cba5c4",
        "reference": "BAS Excluded",
        "entity_id": "684cb7d1-df9a-0134-594e-43d4a6cba5c4",
        "entity_type": "Entity::TaxCode",
        "group_id": "cld-9p9y",
        "action": "CREATE",
        "status": "SUCCESS",
        "created_at": "2017-02-28T04:15:06Z",
        "updated_at": "2017-02-28T04:15:06Z",
        "app_name": "Xero",
        "resource_type": "tax_codes"
      },
      "changes": {
        "status": "ACTIVE",
        "name": "BAS Excluded",
        "tax_type": "BASEXCLUDED",
        "sale_tax_rate": 0,
        "sale_taxes": [
          {
            "name": "GST",
            "rate": 0,
            "tax_type_applicable": "TaxOnAmount"
          }
        ],
        "created_at": "2017-02-28T04:15:06Z",
        "updated_at": "2017-02-28T04:15:06Z"
      },
      "mappings": [
        {
          "group_id": "cld-9p9y",
          "provider": "Xero",
          "external_id": "BAS Excluded",
          "realm": "!ttkPj",
          "push_disabled": true,
          "pull_disabled": false,
          "auto_commit": false,
          "updated_at": "2017-02-28T04:15:06.020Z",
          "app_name": "Xero",
          "pending": false
        },
        {
          "group_id": "cld-9p9r",
          "app_name": "Vend (Nex)",
          "push_disabled": true,
          "pull_disabled": false,
          "auto_commit": false,
          "pending": false
        },
        {
          "group_id": "cld-9p9e",
          "app_name": "SalesForce (Nex)",
          "push_disabled": true,
          "pull_disabled": false,
          "auto_commit": false,
          "pending": false
        }
      ],
      "links": {
        "commit": "https://api-connec-sit.maestrano.io/api/v2/org-fbba/TaxCode/684cb7d1-df9a-0134-594e-43d4a6cba5c4/commit",
        "matches": "https://api-connec-sit.maestrano.io/api/v2/org-fbba/TaxCode/684cb7d1-df9a-0134-594e-43d4a6cba5c4/matches",
        "merge": "https://api-connec-sit.maestrano.io/api/v2/org-fbba/TaxCode/684cb7d1-df9a-0134-594e-43d4a6cba5c4/merge"
      }
    },
    {
      "transaction_log": {
        "id": "68f3a631-df9a-0134-597f-43d4a6cba5c4",
        "reference": "GST Free Capital",
        "entity_id": "68c06131-df9a-0134-5968-43d4a6cba5c4",
        "entity_type": "Entity::TaxCode",
        "group_id": "cld-9p9y",
        "action": "CREATE",
        "status": "SUCCESS",
        "created_at": "2017-02-28T04:15:06Z",
        "updated_at": "2017-02-28T04:15:06Z",
        "app_name": "Xero",
        "resource_type": "tax_codes"
      },
      "changes": {
        "status": "ACTIVE",
        "name": "GST Free Capital",
        "tax_type": "EXEMPTCAPITAL",
        "sale_tax_rate": 0,
        "sale_taxes": [
          {
            "name": "GST",
            "rate": 0,
            "tax_type_applicable": "TaxOnAmount"
          }
        ],
        "created_at": "2017-02-28T04:15:06Z",
        "updated_at": "2017-02-28T04:15:06Z"
      },
      "mappings": [
        {
          "group_id": "cld-9p9y",
          "provider": "Xero",
          "external_id": "GST Free Capital",
          "realm": "!ttkPj",
          "push_disabled": false,
          "pull_disabled": false,
          "auto_commit": false,
          "updated_at": "2017-02-28T04:15:06.597Z",
          "app_name": "Xero",
          "pending": true
        },
        {
          "group_id": "cld-9p9r",
          "app_name": "Vend (Nex)",
          "push_disabled": false,
          "pull_disabled": false,
          "auto_commit": false,
          "pending": true
        },
        {
          "group_id": "cld-9p9e",
          "app_name": "SalesForce (Nex)",
          "push_disabled": false,
          "pull_disabled": false,
          "auto_commit": false,
          "pending": true
        }
      ],
      "links": {
        "commit": "https://api-connec-sit.maestrano.io/api/v2/org-fbba/TaxCode/68c06131-df9a-0134-5968-43d4a6cba5c4/commit",
        "matches": "https://api-connec-sit.maestrano.io/api/v2/org-fbba/TaxCode/68c06131-df9a-0134-5968-43d4a6cba5c4/matches",
        "merge": "https://api-connec-sit.maestrano.io/api/v2/org-fbba/TaxCode/68c06131-df9a-0134-5968-43d4a6cba5c4/merge"
      }
    }
  ],
  "pagination": {
    "skip": 0,
    "top": 100,
    "total": 800,
    "next": "https://api-connec-sit.maestrano.io/api/v2/org-fbba/transaction_logs/pending?%24skip=100&%24top=100"
  }
}
